{"foodTypes": [
{"name": "Abbaye", "types": ["Cheese", "Dairy"]},
{"name": "Almond", "types": ["Nuts & Seeds"]},
{"name": "Ant Empress", "types": ["Creepies & Crawlies", "Forage"]},
{"name": "Ant Larvae", "types": ["Creepies & Crawlies", "Forage"]},
{"name": "Ant Pupae", "types": ["Creepies & Crawlies", "Forage"]},
{"name": "Ant Queen", "types": ["Creepies & Crawlies", "Forage"]},
{"name": "Ant Soldiers", "types": ["Creepies & Crawlies", "Forage"]},
{"name": "Aphids", "types": ["Creepies & Crawlies", "Forage"]},
{"name": "Apple Pie", "types": ["Sweets & Desserts", "Fruit"]},
{"name": "Autumn Steak", "types": ["Meat", "Mushrooms"]},
{"name": "Badger Botillo", "types": ["Meat", "Sausage"]},
{"name": "Baked Birchbark Bream", "types": []},
{"name": "Banon", "types": ["Cheese", "Dairy"]},
{"name": "Bark Bread", "types": ["Bread", "Forage"]},
{"name": "Bay Bolete", "types": ["Mushrooms"]},
{"name": "Bear Salami", "types": ["Meat", "Sausage"]},
{"name": "Beaver Delights", "types": []},
{"name": "Beaver Dog", "types": ["Meat", "Sausage"]},
{"name": "Bee Larvae", "types": ["Creepies & Crawlies", "Forage"]},
{"name": "Beech Nuts", "types": ["Nuts & Seeds"]},
{"name": "Beeted Bird Breast", "types": []},
{"name": "Beetroot", "types": ["Vegetables"]},
{"name": "Beetroot Leaves", "types": ["Vegetables"]},
{"name": "Big Bear Banger", "types": ["Meat", "Sausage", "Game"]},
{"name": "Birchbark Bream", "types": []},
{"name": "Birthday Cake", "types": ["Sweets & Desserts"]},
{"name": "Black Ribeye Steak", "types": ["Meat"]},
{"name": "Black Trumpets", "types": ["Mushrooms", "Forage"]},
{"name": "Blackberry", "types": []},
{"name": "Blackcurrant", "types": []},
{"name": "Bloated Bolete", "types": ["Mushrooms", "Forage"]},
{"name": "Block of Trombone Chantrelle", "types": ["Mushrooms"]},
{"name": "Blubber Feast", "types": ["Meat"]},
{"name": "Blueberries", "types": ["Berries", "Forage"]},
{"name": "Blueberry Pie", "types": ["Sweets & Desserts", "Berries"]},
{"name": "Boar Baloney", "types": ["Meat", "Sausage", "Game"]},
{"name": "Boar Boudin", "types": ["Meat", "Sausage", "Game"]},
{"name": "Boiled Egg", "types": []},
{"name": "Boiled Gooseneck Barnacle", "types": []},
{"name": "Boiled Lobster", "types": []},
{"name": "Boiled Odds", "types": ["Vegetables"]},
{"name": "Boiled Razor Clam", "types": []},
{"name": "Boiled River Pearl Mussel", "types": ["Fish", "Forage"]},
{"name": "Boiled Round Clam", "types": []},
{"name": "Bone Marrow", "types": ["Offal"]},
{"name": "Bread", "types": ["Bread"]},
{"name": "Brique", "types": ["Cheese", "Dairy"]},
{"name": "Brodgar Blue Cheese", "types": ["Cheese", "Dairy"]},
{"name": "Broiled Burbot", "types": ["Fish"]},
{"name": "Bucheron", "types": ["Cheese", "Dairy"]},
{"name": "Bulldog", "types": ["Meat", "Sausage"]},
{"name": "Butcher's Surprise", "types": ["Meat", "Sausage"]},
{"name": "Butter Porridge", "types": []},
{"name": "Butter Scones", "types": ["Bread", "Dairy"]},
{"name": "Butter-Chived Trout", "types": []},
{"name": "Butter-steamed Cavebulb", "types": ["Vegetables", "Dairy"]},
{"name": "Buttered Leeks", "types": []},
{"name": "Cabrales", "types": ["Cheese", "Dairy"]},
{"name": "Caciotta", "types": ["Cheese", "Dairy"]},
{"name": "Camomile", "types": ["Forage"]},
{"name": "Candleberry", "types": ["Berries", "Forage"]},
{"name": "Candy Apple", "types": ["Sweets & Desserts", "Fruit"]},
{"name": "Carob Pod", "types": []},
{"name": "Carrot", "types": ["Vegetables"]},
{"name": "Carrot Cake", "types": ["Sweets & Desserts"]},
{"name": "Cattail Roots", "types": ["Forage"]},
{"name": "Cattail Stew", "types": []},
{"name": "Cave Cheddar", "types": ["Cheese", "Dairy"]},
{"name": "Cave Louse Leg", "types": []},
{"name": "Cave Skewer", "types": ["Creepies & Crawlies"]},
{"name": "Cave Slime", "types": []},
{"name": "Cavebulb", "types": ["Vegetables", "Forage"]},
{"name": "Cavedog", "types": ["Meat", "Sausage", "Forage"]},
{"name": "Caviar Canapé", "types": []},
{"name": "Cellar Cheddar", "types": ["Cheese", "Dairy"]},
{"name": "Centibab", "types": ["Creepies & Crawlies"]},
{"name": "Chabichou", "types": ["Cheese", "Dairy"]},
{"name": "Chabis", "types": ["Cheese", "Dairy"]},
{"name": "Chantrelles", "types": ["Mushrooms", "Forage"]},
{"name": "Cheesecake", "types": ["Sweets & Desserts", "Cheese"]},
{"name": "Cherries", "types": ["Berries", "Fruit"]},
{"name": "Chestnut", "types": ["Nuts & Seeds"]},
{"name": "Chewy Chevon", "types": ["Meat"]},
{"name": "Chicken Chorizo", "types": ["Meat", "Sausage", "Fowl & Poultry"]},
{"name": "Chicken Salad", "types": []},
{"name": "Chives", "types": ["Vegetables"]},
{"name": "Clambake", "types": []},
{"name": "Cold Cut", "types": []},
{"name": "Cone Gruel", "types": ["Nuts & Seeds"]},
{"name": "Cornucopia", "types": ["Bread", "Berries", "Fruit"]},
{"name": "Cow Chorizo", "types": ["Meat", "Sausage"]},
{"name": "Cow's Curd", "types": ["Cheese", "Dairy"]},
{"name": "Crab Cakes", "types": []},
{"name": "Crab Roe", "types": ["Fish"]},
{"name": "Creamy Camembert", "types": ["Cheese", "Dairy"]},
{"name": "Creamy Cock", "types": []},
{"name": "Crêpe Citrouille", "types": ["Dairy", "Vegetables"]},
{"name": "Crêpe Noisette", "types": ["Dairy", "Nuts & Seeds"]},
{"name": "Cucumber", "types": ["Vegetables"]},
{"name": "Cucumber Salsa", "types": []},
{"name": "Curd'n'Chives", "types": ["Dairy"]},
{"name": "Deep Fried Bird", "types": ["Fowl & Poultry"]},
{"name": "Delicious Deer Dog", "types": ["Meat", "Sausage", "Game"]},
{"name": "Dog Rose Hips", "types": []},
{"name": "Dream Cookies", "types": ["Sweets & Desserts"]},
{"name": "Dressed Lettuce", "types": []},
{"name": "Dried Batwings", "types": ["Meat"]},
{"name": "Dried Fig", "types": ["Fruit"]},
{"name": "Dried Filet of Abyss Gazer", "types": ["Fish"]},
{"name": "Dried Filet of Asp", "types": ["Fish"]},
{"name": "Dried Filet of Bass", "types": ["Fish"]},
{"name": "Dried Filet of Bream", "types": ["Fish"]},
{"name": "Dried Filet of Brill", "types": ["Fish"]},
{"name": "Dried Filet of Burbot", "types": ["Fish"]},
{"name": "Dried Filet of Carp", "types": ["Fish"]},
{"name": "Dried Filet of Catfish", "types": ["Fish"]},
{"name": "Dried Filet of Cave Angler", "types": ["Fish"]},
{"name": "Dried Filet of Cave Sculpin", "types": ["Fish"]},
{"name": "Dried Filet of Cavelacanth", "types": ["Fish"]},
{"name": "Dried Filet of Chub", "types": ["Fish"]},
{"name": "Dried Filet of Cod", "types": ["Fish"]},
{"name": "Dried Filet of Eel", "types": ["Fish"]},
{"name": "Dried Filet of Grayling", "types": ["Fish"]},
{"name": "Dried Filet of Haddock", "types": ["Fish"]},
{"name": "Dried Filet of Herring", "types": ["Fish"]},
{"name": "Dried Filet of Ide", "types": ["Fish"]},
{"name": "Dried Filet of Lavaret", "types": ["Fish"]},
{"name": "Dried Filet of Mackerel", "types": ["Fish"]},
{"name": "Dried Filet of Mullet", "types": ["Fish"]},
{"name": "Dried Filet of Pale Ghostfish", "types": ["Fish"]},
{"name": "Dried Filet of Perch", "types": ["Fish"]},
{"name": "Dried Filet of Pike", "types": ["Fish"]},
{"name": "Dried Filet of Plaice", "types": ["Fish"]},
{"name": "Dried Filet of Pomfret", "types": ["Fish"]},
{"name": "Dried Filet of Roach", "types": ["Fish"]},
{"name": "Dried Filet of Rose Fish", "types": ["Fish"]},
{"name": "Dried Filet of Ruffe", "types": ["Fish"]},
{"name": "Dried Filet of Saithe", "types": ["Fish"]},
{"name": "Dried Filet of Salmon", "types": ["Fish"]},
{"name": "Dried Filet of Silver Bream", "types": ["Fish"]},
{"name": "Dried Filet of Smelt", "types": ["Fish"]},
{"name": "Dried Filet of Sturgeon", "types": ["Fish"]},
{"name": "Dried Filet of Tench", "types": ["Fish"]},
{"name": "Dried Filet of Trout", "types": ["Fish"]},
{"name": "Dried Filet of Whiting", "types": ["Fish"]},
{"name": "Dried Filet of Zander", "types": ["Fish"]},
{"name": "Dried Filet of Zope", "types": ["Fish"]},
{"name": "Dried Morels", "types": ["Mushrooms", "Forage"]},
{"name": "Egg & Bacon", "types": ["Meat", "Fowl & Poultry"]},
{"name": "Egg Cake", "types": ["Bread", "Fowl & Poultry"]},
{"name": "Elderberries", "types": []},
{"name": "Elk Dog", "types": ["Meat", "Sausage", "Game"]},
{"name": "Encumbered Roast", "types": ["Meat", "Vegetables"]},
{"name": "Fat-Braised Veg", "types": []},
{"name": "Feta", "types": ["Cheese", "Dairy"]},
{"name": "Field Blewits", "types": ["Mushrooms", "Forage"]},
{"name": "Fig", "types": ["Fruit"]},
{"name": "Fish in Tears", "types": []},
{"name": "Fishballs", "types": []},
{"name": "Fishpie", "types": ["Bread", "Fish"]},
{"name": "Fishsticks", "types": []},
{"name": "Fishwrap", "types": []},
{"name": "Fishy Eyeball", "types": ["Fish"]},
{"name": "Formaela", "types": ["Cheese", "Dairy"]},
{"name": "Fox Fuet", "types": ["Meat", "Sausage"]},
{"name": "Fox Wurst", "types": ["Meat", "Sausage"]},
{"name": "Fried Egg", "types": []},
{"name": "Fruit Pie", "types": ["Sweets & Desserts", "Fruit"]},
{"name": "Friut Salad", "types": ["Sweets & Desserts", "Fruit"]},
{"name": "Fruit Sorbet", "types": ["Sweets & Desserts", "Fruit"]},
{"name": "Fruitroast", "types": []},
{"name": "Garrotxa", "types": ["Cheese", "Dairy"]},
{"name": "Gbejna", "types": ["Cheese", "Dairy"]},
{"name": "Generic Gouda", "types": ["Cheese", "Dairy"]},
{"name": "Gevrik", "types": ["Cheese", "Dairy"]},
{"name": "Giant Puffball", "types": ["Mushrooms"]},
{"name": "Gingerbread Heart", "types": ["Sweets & Desserts"]},
{"name": "Gingerbread Man", "types": ["Sweets & Desserts"]},
{"name": "Gingerbread Woman", "types": ["Sweets & Desserts"]},
{"name": "Glazed Grazer Dog", "types": ["Meat", "Sausage"]},
{"name": "Glazed Honeyons", "types": []},
{"name": "Goat's Curd", "types": ["Cheese", "Dairy"]},
{"name": "Gooseberry", "types": []},
{"name": "Grapes", "types": ["Fruit"]},
{"name": "Graviera", "types": ["Cheese", "Dairy"]},
{"name": "Green Kelp", "types": []},
{"name": "Greenleaf Pie", "types": ["Bread", "Vegetables"]},
{"name": "Grilled Frog Legs", "types": []},
{"name": "Grub", "types": ["Creepies & Crawlies", "Forage"]},
{"name": "Grub Pie", "types": ["Bread", "Forage"]},
{"name": "Grub-Grub", "types": ["Creepies & Crawlies"]},
{"name": "Haggis", "types": ["Offal"]},
{"name": "Halloumi", "types": ["Cheese", "Dairy"]},
{"name": "Harmesan Cheese", "types": ["Cheese", "Dairy"]},
{"name": "Hazelnut", "types": []},
{"name": "Head of Lettuce", "types": ["Vegetables"]},
{"name": "Hedgedog", "types": ["Meat", "Sausage"]},
{"name": "Honey Gruel", "types": []},
{"name": "Honey'd Bear", "types": ["Meat"]},
{"name": "Honeybun", "types": ["Sweets & Desserts"]},
{"name": "Hop Jellies", "types": ["Sweets & Desserts"]},
{"name": "Hot Wings", "types": ["Meat"]},
{"name": "Iced Caviar", "types": ["Fish"]},
{"name": "Indigo Cap", "types": ["Mushrooms", "Forage"]},
{"name": "Jelly Cake", "types": ["Sweets & Desserts", "Creepies & Crawlies"]},
{"name": "Jorbonzola", "types": ["Cheese", "Dairy"]},
{"name": "Jotun's Morsel", "types": ["Meat"]},
{"name": "Kasseri", "types": ["Cheese", "Dairy"]},
{"name": "Kebab Meat", "types": []},
{"name": "King of the Woods", "types": ["Meat", "Sausage", "Game"]},
{"name": "Kvann", "types": ["Vegetables"]},
{"name": "Lamb & Lynx", "types": ["Meat", "Sausage"]},
{"name": "Lamb Sausages", "types": ["Meat", "Sausage"]},
{"name": "Lardy Cake", "types": ["Bread", "Fruit"]},
{"name": "Laurel-Crowned Roast", "types": []},
{"name": "Leeky Fowl", "types": []},
{"name": "Lemon", "types": ["Fruit"]},
{"name": "Lemon Fish", "types": ["Fish"]},
{"name": "Lettuce Leaf", "types": ["Vegetables"]},
{"name": "Lingon Loaf", "types": ["Bread", "Berries"]},
{"name": "Lingonberries", "types": ["Berries", "Forage"]},
{"name": "Linseed Loaf", "types": ["Bread"]},
{"name": "Liver & Onions", "types": ["Offal"]},
{"name": "Lizard on Scales", "types": []},
{"name": "Lynxalami", "types": ["Meat", "Sausage", "Game"]},
{"name": "Magpie", "types": ["Bread", "Fowl & Poultry"]},
{"name": "Majorero", "types": ["Cheese", "Dairy"]},
{"name": "Manchego", "types": ["Cheese", "Dairy"]},
{"name": "Marrow Cake", "types": ["Bread", "Offal"]},
{"name": "Marrow Roast", "types": ["Meat", "Offal"]},
{"name": "Marsh-Mallow", "types": []},
{"name": "Meat-in-Jelly", "types": ["Meat", "Creepies & Crawlies"]},
{"name": "Meatpie", "types": ["Meat", "Bread"]},
{"name": "Medlar", "types": ["Fruit"]},
{"name": "Midnight Blue Cheese", "types": ["Cheese", "Dairy"]},
{"name": "Molehill", "types": ["Meat", "Vegetables"]},
{"name": "Moodog", "types": ["Meat", "Sausage"]},
{"name": "Mothzarella", "types": ["Cheese", "Dairy"]},
{"name": "Moules Frites", "types": ["Fish"]},
{"name": "Mulberry", "types": ["Berries"]},
{"name": "Mushroom & Onion Pirozhki", "types": ["Bread", "Mushrooms"]},
{"name": "Mushroom Mash", "types": ["Mushrooms"]},
{"name": "Mushroom Pie", "types": ["Bread", "Mushrooms"]},
{"name": "Mushroom Spit", "types": ["Mushrooms"]},
{"name": "Mushroom-Burst Glutton", "types": []},
{"name": "Mushrooms in Jelly", "types": []},
{"name": "Musky Milben", "types": ["Cheese", "Dairy"]},
{"name": "Nutjerky", "types": []},
{"name": "Escargots d'Amour", "types": []},
{"name": "Onioned Escargot", "types": []},
{"name": "Roasthopper", "types": []},
{"name": "Odds & Ends", "types": ["Meat", "Vegetables"]},
{"name": "Olive", "types": ["Fruit", "Vegetables"]},
{"name": "Olive Bread", "types": ["Bread", "Vegetables"]},
{"name": "Omelette", "types": []},
{"name": "Onion Bread", "types": ["Bread"]},
{"name": "Onion Rings", "types": []},
{"name": "Onion Salad", "types": ["Meat", "Vegetables"]},
{"name": "Onion Skewer", "types": []},
{"name": "Opened Oyster", "types": []},
{"name": "Oscypki", "types": ["Cheese", "Dairy"]},
{"name": "Oyster Mushroom", "types": ["Mushrooms"]},
{"name": "Packed Pouch", "types": []},
{"name": "Pancake", "types": ["Dairy", "Fowl & Poultry"]},
{"name": "Parasol Mushroom", "types": ["Mushrooms", "Forage"]},
{"name": "Parboiled Morels", "types": ["Mushrooms", "Forage"]},
{"name": "Pea Pie", "types": ["Bread", "Vegetables"]},
{"name": "Peapod", "types": ["Vegetables"]},
{"name": "Pear", "types": []},
{"name": "Pecorino", "types": ["Cheese", "Dairy"]},
{"name": "Perched Perch", "types": ["Fish", "Vegetables"]},
{"name": "Persimmon", "types": ["Fruit"]},
{"name": "Picodon", "types": ["Cheese", "Dairy"]},
{"name": "Piglet Wursts", "types": ["Meat", "Sausage"]},
{"name": "Plum", "types": ["Fruit"]},
{"name": "Plum Pudding", "types": ["Sweets & Desserts", "Fruit"]},
{"name": "Poached Wolverine", "types": []},
{"name": "Pommace Perdue", "types": ["Dairy", "Fruit"]},
{"name": "Poppy Pod", "types": []},
{"name": "Poultry Pot Pie", "types": ["Bread", "Fowl & Poultry"]},
{"name": "Prune", "types": []},
{"name": "Pumpkin Bread", "types": ["Bread"]},
{"name": "Pumpkin Flesh", "types": []},
{"name": "Pumpkin Pie", "types": ["Bread", "Vegetables"]},
{"name": "Pumpkin Stew", "types": []},
{"name": "Quince", "types": []},
{"name": "Rabbit Food", "types": ["Forage"]},
{"name": "Raisin Butter-Cake", "types": []},
{"name": "Raisins", "types": []},
{"name": "Raspberry", "types": []},
{"name": "Rat-on-a-Stick", "types": ["Meat", "Creepies & Crawlies"]},
{"name": "Raw Beef", "types": []},
{"name": "Red Apple", "types": ["Fruit"]},
{"name": "Red-Shred Salad", "types": []},
{"name": "Redcurrant", "types": []},
{"name": "Ring of Brodgar (Baking)", "types": []},
{"name": "Ring of Brodgar (Seafood)", "types": []},
{"name": "Roast Adder", "types": ["Meat", "Creepies & Crawlies"]},
{"name": "Roast Ant", "types": []},
{"name": "Roast Badger", "types": ["Meat"]},
{"name": "Roast Bat", "types": ["Meat"]},
{"name": "Roast Bear", "types": ["Meat", "Game"]},
{"name": "Roast Beaver", "types": ["Meat"]},
{"name": "Roast Beef", "types": ["Meat"]},
{"name": "Roast Bog Turtle", "types": ["Meat"]},
{"name": "Roast Boreworm", "types": ["Meat"]},
{"name": "Roast Cachalot", "types": ["Meat", "Fish"]},
{"name": "Roast Cave Louse", "types": []},
{"name": "Roast Caverat", "types": ["Meat"]},
{"name": "Roast Chasm Conch", "types": []},
{"name": "Roast Chestnut", "types": ["Nuts & Seeds"]},
{"name": "Roast Chevon", "types": ["Meat"]},
{"name": "Roast Chicken", "types": ["Meat", "Fowl & Poultry"]},
{"name": "Roast Crab", "types": ["Meat", "Fish"]},
{"name": "Roast Eagle Owl", "types": ["Meat"]},
{"name": "Roast Filet of Abyss Gazer", "types": ["Fish"]},
{"name": "Roast Filet of Asp", "types": ["Fish"]},
{"name": "Roast Filet of Bass", "types": ["Fish"]},
{"name": "Roast Filet of Bream", "types": ["Fish"]},
{"name": "Roast Filet of Brill", "types": ["Fish"]},
{"name": "Roast Filet of Burbot", "types": ["Fish"]},
{"name": "Roast Filet of Carp", "types": ["Fish"]},
{"name": "Roast Filet of Catfish", "types": ["Fish"]},
{"name": "Roast Filet of Cave Angler", "types": ["Fish"]},
{"name": "Roast Filet of Cave Sculpin", "types": ["Fish"]},
{"name": "Roast Filet of Cavelacanth", "types": ["Fish"]},
{"name": "Roast Filet of Chub", "types": ["Fish"]},
{"name": "Roast Filet of Cod", "types": ["Fish"]},
{"name": "Roast Filet of Eel", "types": ["Fish"]},
{"name": "Roast Filet of Grayling", "types": ["Fish"]},
{"name": "Roast Filet of Haddock", "types": ["Fish"]},
{"name": "Roast Filet of Herring", "types": ["Fish"]},
{"name": "Roast Filet of Ide", "types": ["Fish"]},
{"name": "Roast Filet of Lavaret", "types": ["Fish"]},
{"name": "Roast Filet of Mackerel", "types": ["Fish"]},
{"name": "Roast Filet of Mullet", "types": ["Fish"]},
{"name": "Roast Filet of Pale Ghostfish", "types": ["Fish"]},
{"name": "Roast Filet of Perch", "types": ["Fish"]},
{"name": "Roast Filet of Pike", "types": ["Fish"]},
{"name": "Roast Filet of Plaice", "types": ["Fish"]},
{"name": "Roast Filet of Pomfret", "types": ["Fish"]},
{"name": "Roast Filet of Roach", "types": ["Fish"]},
{"name": "Roast Filet of Rose Fish", "types": ["Fish"]},
{"name": "Roast Filet of Ruffe", "types": ["Fish"]},
{"name": "Roast Filet of Saithe", "types": ["Fish"]},
{"name": "Roast Filet of Salmon", "types": ["Fish"]},
{"name": "Roast Filet of Silver Bream", "types": ["Fish"]},
{"name": "Roast Filet of Smelt", "types": ["Fish"]},
{"name": "Roast Filet of Sturgeon", "types": ["Fish"]},
{"name": "Roast Filet of Tench", "types": ["Fish"]},
{"name": "Roast Filet of Trout", "types": ["Fish"]},
{"name": "Roast Filet of Whiting", "types": ["Fish"]},
{"name": "Roast Filet of Zander", "types": ["Fish"]},
{"name": "Roast Filet of Zope", "types": ["Fish"]},
{"name": "Roast Fox", "types": ["Meat"]},
{"name": "Roast Golden Eagle", "types": []},
{"name": "Roast Grey Seal", "types": ["Meat", "Game"]},
{"name": "Roast Hedgehog", "types": ["Meat", "Forage"]},
{"name": "Roast Horse", "types": ["Meat"]},
{"name": "Roast Lobster", "types": []},
{"name": "Roast Lynx", "types": ["Meat", "Game"]},
{"name": "Roast Magpie", "types": ["Meat", "Fowl & Poultry", "Forage"]},
{"name": "Roast Mallard", "types": []},
{"name": "Roast Mammoth", "types": ["Meat", "Game"]},
{"name": "Roast Meat", "types": []},
{"name": "Roast Mole", "types": []},
{"name": "Roast Moose", "types": ["Meat", "Game"]},
{"name": "Roast Mutton", "types": ["Meat"]},
{"name": "Roast Orca", "types": ["Meat", "Fish"]},
{"name": "Roast Otter", "types": []},
{"name": "Roast Pork", "types": ["Meat"]},
{"name": "Roast Ptarmigan", "types": []},
{"name": "Roast Quail", "types": []},
{"name": "Roast Rabbit", "types": ["Meat", "Forage"]},
{"name": "Roast Reindeer Venison", "types": []},
{"name": "Roast Roach Wrap", "types": []},
{"name": "Roast Rock Dove", "types": []},
{"name": "Roast Seagull", "types": ["Meat", "Fowl & Poultry", "Forage"]},
{"name": "Roast Squirrel", "types": []},
{"name": "Roast Stoat", "types": []},
{"name": "Roast Swan", "types": ["Meat", "Fowl & Poultry"]},
{"name": "Roast Troll", "types": ["Meat"]},
{"name": "Roast Venison", "types": ["Meat", "Game"]},
{"name": "Roast Walrus", "types": ["Meat"]},
{"name": "Roast Wild Beef", "types": []},
{"name": "Roast Wild Mutton", "types": []},
{"name": "Roast Wild Pork", "types": []},
{"name": "Roast Wildgoat", "types": []},
{"name": "Roast Wildhorse", "types": []},
{"name": "Roast Wolf", "types": ["Meat", "Game"]},
{"name": "Roast Wolverine", "types": []},
{"name": "Roast Wood Grouse", "types": []},
{"name": "Robiola", "types": ["Cheese", "Dairy"]},
{"name": "Roeboat", "types": ["Fish"]},
{"name": "Roncal", "types": ["Cheese", "Dairy"]},
{"name": "Ruby Bolete", "types": ["Mushrooms"]},
{"name": "Running Rabbit Sausage", "types": ["Meat", "Sausage", "Forage"]},
{"name": "Sacrebleu", "types": ["Dairy", "Berries"]},
{"name": "Seaberries", "types": ["Berries"]},
{"name": "Seal Burger", "types": ["Meat", "Bread"]},
{"name": "Seedcrisp Flatbread", "types": ["Bread", "Nuts & Seeds"]},
{"name": "Sheep's Curd", "types": ["Cheese", "Dairy"]},
{"name": "Shepherd's Pie", "types": ["Meat", "Bread"]},
{"name": "Sloan Berries", "types": []},
{"name": "Smoked Adder", "types": ["Meat", "Creepies & Crawlies"]},
{"name": "Smoked Ant", "types": []},
{"name": "Smoked Badger", "types": ["Meat"]},
{"name": "Smoked Badger Botillo", "types": ["Meat", "Sausage"]},
{"name": "Smoked Bat", "types": []},
{"name": "Smoked Bear", "types": ["Meat", "Game"]},
{"name": "Smoked Bear Salami", "types": ["Meat", "Sausage"]},
{"name": "Smoked Beaver", "types": ["Meat"]},
{"name": "Smoked Beaver Dog", "types": ["Meat", "Sausage"]},
{"name": "Smoked Beef", "types": ["Meat"]},
{"name": "Smoked Big Bear Banger", "types": ["Meat", "Sausage", "Game"]},
{"name": "Smoked Boar Baloney", "types": ["Meat", "Sausage", "Game"]},
{"name": "Smoked Boar Boudin", "types": ["Meat", "Sausage", "Game"]},
{"name": "Smoked Bog Turtle", "types": []},
{"name": "Smoked Boreworm", "types": ["Meat"]},
{"name": "Smoked Bulldog", "types": ["Meat", "Sausage"]},
{"name": "Smoked Butcher's Surprise", "types": ["Meat", "Sausage"]},
{"name": "Smoked Cachalot", "types": ["Meat", "Fish"]},
{"name": "Smoked Cave Angler", "types": []},
{"name": "Smoked Cavedog", "types": ["Meat", "Sausage", "Forage"]},
{"name": "Smoked Cave Louse", "types": []},
{"name": "Smoked Cave Sculpin", "types": []},
{"name": "Smoked Caverat", "types": []},
{"name": "Smoked Chevon", "types": ["Meat"]},
{"name": "Smoked Chicken", "types": ["Meat", "Fowl & Poultry"]},
{"name": "Smoked Chicken Chorizo", "types": ["Meat", "Sausage", "Fowl & Poultry"]},
{"name": "Smoked Cow Chorizo", "types": ["Meat", "Sausage"]},
{"name": "Smoked Crab", "types": ["Meat", "Fish"]},
{"name": "Smoked Delicious Deer Dog", "types": ["Meat", "Sausage", "Game"]},
{"name": "Smoked Eagle Owl", "types": ["Meat", "Fowl & Poultry"]},
{"name": "Smoked Eel", "types": []},
{"name": "Smoked Elk Dog", "types": ["Meat", "Sausage", "Game"]},
{"name": "Smoked Fox", "types": ["Meat"]},
{"name": "Smoked Fox Fuet", "types": ["Meat", "Sausage"]},
{"name": "Smoked Fox Wurst", "types": ["Meat", "Sausage"]},
{"name": "Smoked Glazed Grazer Dog", "types": ["Meat", "Sausage"]},
{"name": "Smoked Golden Eagle", "types": ["Meat", "Fowl & Poultry"]},
{"name": "Smoked Grey Seal", "types": ["Meat", "Game"]},
{"name": "Smoked Hedgedog", "types": ["Meat", "Sausage"]},
{"name": "Smoked Hedgehog", "types": ["Meat", "Forage"]},
{"name": "Smoked Horse", "types": ["Meat"]},
{"name": "Smoked King of the Woods", "types": ["Meat", "Sausage", "Game"]},
{"name": "Smoked Lamb & Lynx", "types": ["Meat", "Sausage"]},
{"name": "Smoked Lamb Sausages", "types": []},
{"name": "Smoked Lobster", "types": ["Meat", "Fish"]},
{"name": "Smoked Lynx", "types": ["Meat", "Game"]},
{"name": "Smoked Lynxalami", "types": ["Meat", "Sausage", "Game"]},
{"name": "Smoked Magpie", "types": ["Meat", "Fowl & Poultry", "Forage"]},
{"name": "Smoked Mallard", "types": []},
{"name": "Smoked Mammoth", "types": ["Meat", "Game"]},
{"name": "Smoked Mole", "types": ["Meat", "Forage"]},
{"name": "Smoked Moodog", "types": ["Meat", "Sausage"]},
{"name": "Smoked Moose", "types": ["Meat", "Game"]},
{"name": "Smoked Mutton", "types": ["Meat"]},
{"name": "Smoked Orca", "types": ["Meat", "Fish"]},
{"name": "Smoked Otter", "types": []},
{"name": "Smoked Pelican", "types": []},
{"name": "Smoked Piglet Wursts", "types": ["Meat", "Sausage"]},
{"name": "Smoked Pork", "types": ["Meat"]},
{"name": "Smoked Ptarmigan", "types": ["Meat", "Fowl & Poultry"]},
{"name": "Smoked Quail", "types": []},
{"name": "Smoked Rabbit", "types": ["Meat", "Forage"]},
{"name": "Smoked Reindeer Venison", "types": []},
{"name": "Smoked Rock Dove", "types": ["Meat", "Fowl & Poultry"]},
{"name": "Smoked Running Rabbit Sausage", "types": ["Meat", "Sausage", "Forage"]},
{"name": "Smoked Seagull", "types": ["Meat", "Fowl & Poultry", "Forage"]},
{"name": "Smoked Squirrel", "types": []},
{"name": "Smoked Stoat", "types": []},
{"name": "Smoked Swan", "types": ["Meat", "Fowl & Poultry"]},
{"name": "Smoked Swan Neck", "types": ["Meat", "Sausage", "Fowl & Poultry"]},
{"name": "Smoked Tame Game Liverwurst", "types": ["Meat", "Sausage"]},
{"name": "Smoked Troll", "types": ["Meat"]},
{"name": "Smoked Trout", "types": []},
{"name": "Smoked Venison", "types": ["Meat", "Game"]},
{"name": "Smoked Walrus", "types": ["Meat"]},
{"name": "Smoked Walrus & Carpenter", "types": ["Meat", "Sausage", "Fish"]},
{"name": "Smoked Wild Beef", "types": []},
{"name": "Smoked Wild Mutton", "types": []},
{"name": "Smoked Wild Pork", "types": ["Meat", "Game"]},
{"name": "Smoked Wildgoat", "types": []},
{"name": "Smoked Wildhorse", "types": []},
{"name": "Smoked Wolf", "types": ["Meat", "Game"]},
{"name": "Smoked Wolfdog", "types": ["Meat", "Sausage"]},
{"name": "Smoked Wolverine", "types": []},
{"name": "Smoked Wonderful Wilderness Wurst", "types": ["Meat", "Sausage", "Game"]},
{"name": "Smoked Wood Grouse", "types": []},
{"name": "Snowtop", "types": ["Mushrooms"]},
{"name": "Soot Egg", "types": ["Fowl & Poultry"]},
{"name": "Sorb Apple", "types": ["Fruit"]},
{"name": "Spicy Salad", "types": ["Vegetables"]},
{"name": "Spindly Taproot", "types": []},
{"name": "Spitroast Abyss Gazer", "types": ["Meat"]},
{"name": "Spitroast Adder", "types": ["Meat"]},
{"name": "Spitroast Asp", "types": ["Meat"]},
{"name": "Spitroast Badger", "types": ["Meat"]},
{"name": "Spitroast Bass", "types": ["Meat"]},
{"name": "Spitroast Bat", "types": ["Meat"]},
{"name": "Spitroast Bear", "types": ["Meat"]},
{"name": "Spitroast Beaver", "types": ["Meat"]},
{"name": "Spitroast Beef", "types": ["Meat"]},
{"name": "Spitroast Bog Turtle", "types": ["Meat"]},
{"name": "Spitroast Boreworm", "types": ["Meat"]},
{"name": "Spitroast Bream", "types": ["Meat"]},
{"name": "Spitroast Brill", "types": ["Meat"]},
{"name": "Spitroast Burbot", "types": ["Meat"]},
{"name": "Spitroast Carp", "types": ["Meat"]},
{"name": "Spitroast Catfish", "types": ["Meat"]},
{"name": "Spitroast Cave Angler", "types": ["Meat"]},
{"name": "Spitroast Cave Louse", "types": ["Meat"]},
{"name": "Spitroast Cave Sculpin", "types": ["Meat"]},
{"name": "Spitroast Cavelacanth", "types": ["Meat"]},
{"name": "Spitroast Caverat", "types": ["Meat"]},
{"name": "Spitroast Chevon", "types": ["Meat"]},
{"name": "Spitroast Chicken", "types": ["Meat"]},
{"name": "Spitroast Chub", "types": ["Meat"]},
{"name": "Spitroast Cod", "types": ["Meat"]},
{"name": "Spitroast Eagle Owl", "types": ["Meat"]},
{"name": "Spitroast Eel", "types": ["Meat"]},
{"name": "Spitroast Fox", "types": ["Meat"]},
{"name": "Spitroast Golden Eagle", "types": ["Meat"]},
{"name": "Spitroast Grayling", "types": ["Meat"]},
{"name": "Spitroast Grey Seal", "types": ["Meat"]},
{"name": "Spitroast Haddock", "types": ["Meat"]},
{"name": "Spitroast Hedgehog", "types": ["Meat"]},
{"name": "Spitroast Herring", "types": ["Meat"]},
{"name": "Spitroast Horse", "types": ["Meat"]},
{"name": "Spitroast Ide", "types": ["Meat"]},
{"name": "Spitroast Lavaret", "types": ["Meat"]},
{"name": "Spitroast Lynx", "types": ["Meat"]},
{"name": "Spitroast Mackerel", "types": ["Meat"]},
{"name": "Spitroast Magpie", "types": ["Meat"]},
{"name": "Spitroast Mallard", "types": ["Meat"]},
{"name": "Spitroast Mole", "types": ["Meat"]},
{"name": "Spitroast Moose", "types": ["Meat", "Game"]},
{"name": "Spitroast Mullet", "types": ["Meat"]},
{"name": "Spitroast Mutton", "types": ["Meat"]},
{"name": "Spitroast Otter", "types": ["Meat"]},
{"name": "Spitroast Pale Ghostfish", "types": ["Meat"]},
{"name": "Spitroast Perch", "types": ["Meat"]},
{"name": "Spitroast Pike", "types": ["Meat"]},
{"name": "Spitroast Plaice", "types": ["Meat"]},
{"name": "Spitroast Pomfret", "types": ["Meat"]},
{"name": "Spitroast Ptarmigan", "types": ["Meat"]},
{"name": "Spitroast Quail", "types": ["Meat"]},
{"name": "Spitroast Rabbit", "types": ["Meat"]},
{"name": "Spitroast Reindeer Venison", "types": ["Meat"]},
{"name": "Spitroast Roach", "types": ["Meat"]},
{"name": "Spitroast Rock Dove", "types": ["Meat"]},
{"name": "Spitroast Rose Fish", "types": ["Meat"]},
{"name": "Spitroast Ruffe", "types": ["Meat"]},
{"name": "Spitroast Saithe", "types": ["Meat"]},
{"name": "Spitroast Salmon", "types": ["Meat"]},
{"name": "Spitroast Seagull", "types": ["Meat"]},
{"name": "Spitroast Silver Bream", "types": ["Meat"]},
{"name": "Spitroast Smelt", "types": ["Meat"]},
{"name": "Spitroast Squirrel", "types": ["Meat"]},
{"name": "Spitroast Stoat", "types": ["Meat"]},
{"name": "Spitroast Sturgeon", "types": ["Meat"]},
{"name": "Spitroast Swan", "types": ["Meat", "Fowl & Poultry"]},
{"name": "Spitroast Tench", "types": ["Meat"]},
{"name": "Spitroast Trout", "types": ["Meat"]},
{"name": "Spitroast Venison", "types": ["Meat"]},
{"name": "Spitroast Walrus", "types": ["Meat"]},
{"name": "Spitroast Whiting", "types": ["Meat"]},
{"name": "Spitroast Wild Beef", "types": ["Meat"]},
{"name": "Spitroast Wild Pork", "types": ["Meat"]},
{"name": "Spitroast Wildgoat", "types": ["Meat"]},
{"name": "Spitroast Wolf", "types": ["Meat"]},
{"name": "Spitroast Wolverine", "types": ["Meat"]},
{"name": "Spitroast Wood Grouse", "types": ["Meat"]},
{"name": "Spitroast Zander", "types": ["Meat"]},
{"name": "Spitroast Zope", "types": ["Meat"]},
{"name": "Spring Stew", "types": []},
{"name": "Stalagoom", "types": []},
{"name": "Steak & Tubers", "types": ["Meat", "Vegetables"]},
{"name": "Stinging Salad", "types": []},
{"name": "Strawberries in Cream", "types": ["Sweets & Desserts", "Dairy"]},
{"name": "Strawberry", "types": ["Berries"]},
{"name": "Strawberry Cake", "types": ["Bread", "Berries"]},
{"name": "Stuffed Bird", "types": []},
{"name": "Sunlit Stilton", "types": ["Cheese", "Dairy"]},
{"name": "Swan Neck", "types": ["Meat", "Sausage", "Fowl & Poultry"]},
{"name": "Sweet Beets", "types": []},
{"name": "Tame Game Liverwurst", "types": ["Meat", "Sausage"]},
{"name": "Tasty Emmentaler", "types": ["Cheese", "Dairy"]},
{"name": "Troll Ear", "types": []},
{"name": "Troll Mushrooms", "types": ["Mushrooms"]},
{"name": "Troll Nose", "types": []},
{"name": "Troll Tail", "types": []},
{"name": "Troll's Third Eye", "types": ["Meat"]},
{"name": "Tuber Mash", "types": ["Vegetables"]},
{"name": "Turnip", "types": []},
{"name": "Turnip Fries", "types": []},
{"name": "Two-Bird Skewer", "types": []},
{"name": "Walnut", "types": []},
{"name": "Walrus & Carpenter", "types": ["Meat", "Sausage", "Fish"]},
{"name": "Weird Beetroot", "types": []},
{"name": "Wellplaiced Pie", "types": []},
{"name": "Withercorn", "types": ["Nuts & Seeds"]},
{"name": "Wolfdog", "types": ["Meat", "Sausage"]},
{"name": "Wonderful Wilderness Wurst", "types": ["Meat", "Sausage", "Game"]},
{"name": "Wood Strawberry", "types": ["Fruit"]},
{"name": "Yellowfeet", "types": ["Mushrooms", "Forage"]},
{"name": "Yesteryear's Medlar", "types": ["Fruit"]},
{"name": "Yesteryear's Mulberry", "types": []},
{"name": "Yesteryear's Pear", "types": ["Fruit"]},
{"name": "Yesteryear's Plum", "types": ["Fruit"]},
{"name": "Yesteryear's Quince", "types": []},
{"name": "Yesteryear's Red Apple", "types": ["Fruit"]},
{"name": "Zamorano", "types": ["Cheese", "Dairy"]},
{"name": "Zesty Brill", "types": []}
],
"typeDrinks": [
{"type": "Berries", "drinks": ["Milk"]},
{"type": "Bread", "drinks": ["Milk"]},
{"type": "Cheese", "drinks": ["Wine"]},
{"type": "Creepies & Crawlies", "drinks": ["Perry"]},
{"type": "Dairy", "drinks": ["Tea"]},
{"type": "Fish", "drinks": ["Weißbier"]},
{"type": "Forage", "drinks": ["Milk"]},
{"type": "Fowl & Poultry", "drinks": ["Cider"]},
{"type": "Fruits", "drinks": ["Tea"]},
{"type": "Game", "drinks": ["Mead", "Beer"]},
{"type": "Meat", "drinks": ["Perry", "Wine"]},
{"type": "Mushrooms", "drinks": ["Perry"]},
{"type": "Nuts & Seeds", "drinks": ["Mead", "Tea"]},
{"type": "Offal", "drinks": ["Cider", "Beer"]},
{"type": "Sausage", "drinks": ["Beer"]},
{"type": "Sweets & Desserts", "drinks": ["Brandy"]},
{"type": "Vegetables", "drinks": ["Mead"]}
],
"drinkVessels": [
{"drink": "Applejuice", "vessel": "Tankard"},
{"drink": "Beer", "vessel": "Tankard"},
{"drink": "Brandy", "vessel": null},
{"drink": "Cider", "vessel": "Tankard"},
{"drink": "Grapejuice", "vessel": "Wine Glass"},
{"drink": "Mead", "vessel": "Drinking Horn"},
{"drink": "Milk", "vessel": null},
{"drink": "Pearjuice", "vessel": "Tankard"},
{"drink": "Perry", "vessel": "Tankard"},
{"drink": "Tea", "vessel": "Mug"},
{"drink": "Weißbier", "vessel": "Tankard"},
{"drink": "Wine", "vessel": "Wine Glass"},
{"drink": "Calvados", "vessel": null}
],
"vesselResources": [
  {"vessel": "Tankard", "resource": "vessels/tankard"},
  {"vessel": "Mug", "resource": "vessels/mug"},
  {"vessel": "Any","resource": "vessels/any"},
  {"vessel": "Drinking Horn", "resource": "vessels/drinkinghorn"},
  {"vessel": "Wine Glass", "resource": "vessels/wineglass"}
]
}